…
GallSumLong<-GallSum%>%group_by(Transect,Fire,Graze)%>%pivot_longer(cols=PercentShrubCover:PercentAGCover,
                                                           names_to="CoverType",
                                                           values_to="CoverPercent")
GallSumLong
```

```
## # A tibble: 150 × 22
## # Groups:   Transect, Fire, Graze [29]
##    Transect PastureID Fire  Graze  PUTR2  none    AF    PG    PF ARTR4 TECA2
##       <int> <fct>     <chr> <chr>  <dbl> <dbl> <dbl> <dbl> <dbl> <dbl> <dbl>
##  1        5 1B        Burn  Spring     2     4     5    14     0     0     0
##  2        5 1B        Burn  Spring     2     4     5    14     0     0     0
##  3        5 1B        Burn  Spring     2     4     5    14     0     0     0
##  4        5 1B        Burn  Spring     2     4     5    14     0     0     0
##  5        5 1B        Burn  Spring     2     4     5    14     0     0     0
##  6        4 1B        Burn  Spring     0     7     2     7     1     7     1
##  7        4 1B        Burn  Spring     0     7     2     7     1     7     1
##  8        4 1B        Burn  Spring     0     7     2     7     1     7     1
##  9        4 1B        Burn  Spring     0     7     2     7     1     7     1
## 10        4 1B        Burn  Spring     0     7     2     7     1     7     1
## # ℹ 140 more rows
## # ℹ 11 more variables: AG <dbl>, CHVI <dbl>, CHVI8 <dbl>, SD <dbl>, M <dbl>,
## #   ShrubTotal <dbl>, TotalCover <dbl>, PercentARTR4Cover <dbl>,
## #   `PercentShrubCover + PercentPFCover + PercentPGCover + PercentAGCover` <dbl>,
## #   CoverType <chr>, CoverPercent <dbl>
```
…
